{
  "images" : [
    {
      "idiom" : "iphone",
      "filename" : "Icon-Right-Disabled.png",
      "scale" : "1x"
    },
    {
      "idiom" : "iphone",
      "filename" : "Icon-Right-Disabled@2x.png",
      "scale" : "2x"
    },
    {
      "idiom" : "iphone",
      "filename" : "Icon-Right-Disabled@3x.png",
      "scale" : "3x"
    },
    {
      "idiom" : "ipad",
      "filename" : "Icon-Right-Disabled-iPad.png",
      "scale" : "1x"
    },
    {
      "idiom" : "ipad",
      "filename" : "Icon-Right-Disabled-iPad@2x.png",
      "scale" : "2x"
    }
  ],
  "info" : {
    "version" : 1,
    "author" : "xcode"
  }
}